newmtl default
Ka 1.00 1.00 1.00
Kd 1.00 1.00 1.00
Ks 0.00 0.00 0.00
Ns 20.00
illum 2

newmtl 1497629027170_0
Ka 1.00 1.00 1.00
Kd 1.00 1.00 1.00
Ks 0.00 0.00 0.00
Ns 20.00
illum 2
map_Ka 1497629027170_0.png
map_Kd 1497629027170_0.png

newmtl 1497629027170_1
Ka 1.00 1.00 1.00
Kd 1.00 1.00 1.00
Ks 0.00 0.00 0.00
Ns 20.00
illum 2
map_Ka 1497629027170_1.png
map_Kd 1497629027170_1.png

newmtl 1497629027170_2
Ka 1.00 1.00 1.00
Kd 1.00 1.00 1.00
Ks 0.00 0.00 0.00
Ns 20.00
illum 2
map_Ka 1497629027170_2.png
map_Kd 1497629027170_2.png

newmtl 1497629027170_3
Ka 1.00 1.00 1.00
Kd 1.00 1.00 1.00
Ks 0.00 0.00 0.00
Ns 20.00
illum 2
map_Ka 1497629027170_3.png
map_Kd 1497629027170_3.png

newmtl 1497629027170_4
Ka 1.00 1.00 1.00
Kd 1.00 1.00 1.00
Ks 0.00 0.00 0.00
Ns 20.00
illum 2
map_Ka 1497629027170_4.png
map_Kd 1497629027170_4.png

newmtl 1497629027170_5
Ka 1.00 1.00 1.00
Kd 1.00 1.00 1.00
Ks 0.00 0.00 0.00
Ns 20.00
illum 2
map_Ka 1497629027170_5.png
map_Kd 1497629027170_5.png

newmtl 1497629027170_6
Ka 1.00 1.00 1.00
Kd 1.00 1.00 1.00
Ks 0.00 0.00 0.00
Ns 20.00
illum 2
map_Ka 1497629027170_6.png
map_Kd 1497629027170_6.png

newmtl 1497629027170_7
Ka 1.00 1.00 1.00
Kd 1.00 1.00 1.00
Ks 0.00 0.00 0.00
Ns 20.00
illum 2
map_Ka 1497629027170_7.png
map_Kd 1497629027170_7.png

newmtl 1497629027170_8
Ka 1.00 1.00 1.00
Kd 1.00 1.00 1.00
Ks 0.00 0.00 0.00
Ns 20.00
illum 2
map_Ka 1497629027170_8.png
map_Kd 1497629027170_8.png

newmtl 1497629027170_9
Ka 1.00 1.00 1.00
Kd 1.00 1.00 1.00
Ks 0.00 0.00 0.00
Ns 20.00
illum 2
map_Ka 1497629027170_9.png
map_Kd 1497629027170_9.png

newmtl 1497629027170_10
Ka 1.00 1.00 1.00
Kd 1.00 1.00 1.00
Ks 0.00 0.00 0.00
Ns 20.00
illum 2
map_Ka 1497629027170_10.png
map_Kd 1497629027170_10.png

newmtl 1497629027170_11
Ka 1.00 1.00 1.00
Kd 1.00 1.00 1.00
Ks 0.00 0.00 0.00
Ns 20.00
illum 2
map_Ka 1497629027170_11.png
map_Kd 1497629027170_11.png

newmtl 1497629027170_12
Ka 1.00 1.00 1.00
Kd 1.00 1.00 1.00
Ks 0.00 0.00 0.00
Ns 20.00
illum 2
map_Ka 1497629027170_12.png
map_Kd 1497629027170_12.png

newmtl 1497629027170_13
Ka 1.00 1.00 1.00
Kd 1.00 1.00 1.00
Ks 0.00 0.00 0.00
Ns 20.00
illum 2
map_Ka 1497629027170_13.png
map_Kd 1497629027170_13.png

newmtl 1497629027170_14
Ka 1.00 1.00 1.00
Kd 1.00 1.00 1.00
Ks 0.00 0.00 0.00
Ns 20.00
illum 2
map_Ka 1497629027170_14.png
map_Kd 1497629027170_14.png

