newmtl default
Ka 1.00 1.00 1.00
Kd 1.00 1.00 1.00
Ks 0.00 0.00 0.00
Ns 20.00
illum 2

newmtl 1497629578514_0
Ka 1.00 1.00 1.00
Kd 1.00 1.00 1.00
Ks 0.00 0.00 0.00
Ns 20.00
illum 2
map_Ka 1497629578514_0.png
map_Kd 1497629578514_0.png

newmtl 1497629578514_1
Ka 1.00 1.00 1.00
Kd 1.00 1.00 1.00
Ks 0.00 0.00 0.00
Ns 20.00
illum 2
map_Ka 1497629578514_1.png
map_Kd 1497629578514_1.png

newmtl 1497629578514_2
Ka 1.00 1.00 1.00
Kd 1.00 1.00 1.00
Ks 0.00 0.00 0.00
Ns 20.00
illum 2
map_Ka 1497629578514_2.png
map_Kd 1497629578514_2.png

newmtl 1497629578514_3
Ka 1.00 1.00 1.00
Kd 1.00 1.00 1.00
Ks 0.00 0.00 0.00
Ns 20.00
illum 2
map_Ka 1497629578514_3.png
map_Kd 1497629578514_3.png

newmtl 1497629578514_4
Ka 1.00 1.00 1.00
Kd 1.00 1.00 1.00
Ks 0.00 0.00 0.00
Ns 20.00
illum 2
map_Ka 1497629578514_4.png
map_Kd 1497629578514_4.png

newmtl 1497629578514_5
Ka 1.00 1.00 1.00
Kd 1.00 1.00 1.00
Ks 0.00 0.00 0.00
Ns 20.00
illum 2
map_Ka 1497629578514_5.png
map_Kd 1497629578514_5.png

newmtl 1497629578514_6
Ka 1.00 1.00 1.00
Kd 1.00 1.00 1.00
Ks 0.00 0.00 0.00
Ns 20.00
illum 2
map_Ka 1497629578514_6.png
map_Kd 1497629578514_6.png

newmtl 1497629578514_7
Ka 1.00 1.00 1.00
Kd 1.00 1.00 1.00
Ks 0.00 0.00 0.00
Ns 20.00
illum 2
map_Ka 1497629578514_7.png
map_Kd 1497629578514_7.png

newmtl 1497629578514_8
Ka 1.00 1.00 1.00
Kd 1.00 1.00 1.00
Ks 0.00 0.00 0.00
Ns 20.00
illum 2
map_Ka 1497629578514_8.png
map_Kd 1497629578514_8.png

newmtl 1497629578514_9
Ka 1.00 1.00 1.00
Kd 1.00 1.00 1.00
Ks 0.00 0.00 0.00
Ns 20.00
illum 2
map_Ka 1497629578514_9.png
map_Kd 1497629578514_9.png

newmtl 1497629578514_10
Ka 1.00 1.00 1.00
Kd 1.00 1.00 1.00
Ks 0.00 0.00 0.00
Ns 20.00
illum 2
map_Ka 1497629578514_10.png
map_Kd 1497629578514_10.png

newmtl 1497629578514_11
Ka 1.00 1.00 1.00
Kd 1.00 1.00 1.00
Ks 0.00 0.00 0.00
Ns 20.00
illum 2
map_Ka 1497629578514_11.png
map_Kd 1497629578514_11.png

newmtl 1497629578514_12
Ka 1.00 1.00 1.00
Kd 1.00 1.00 1.00
Ks 0.00 0.00 0.00
Ns 20.00
illum 2
map_Ka 1497629578514_12.png
map_Kd 1497629578514_12.png

newmtl 1497629578514_13
Ka 1.00 1.00 1.00
Kd 1.00 1.00 1.00
Ks 0.00 0.00 0.00
Ns 20.00
illum 2
map_Ka 1497629578514_13.png
map_Kd 1497629578514_13.png

newmtl 1497629578514_14
Ka 1.00 1.00 1.00
Kd 1.00 1.00 1.00
Ks 0.00 0.00 0.00
Ns 20.00
illum 2
map_Ka 1497629578514_14.png
map_Kd 1497629578514_14.png

newmtl 1497629578514_15
Ka 1.00 1.00 1.00
Kd 1.00 1.00 1.00
Ks 0.00 0.00 0.00
Ns 20.00
illum 2
map_Ka 1497629578514_15.png
map_Kd 1497629578514_15.png

