newmtl default
Ka 1.00 1.00 1.00
Kd 1.00 1.00 1.00
Ks 0.00 0.00 0.00
Ns 20.00
illum 2

newmtl 1497631864221_0
Ka 1.00 1.00 1.00
Kd 1.00 1.00 1.00
Ks 0.00 0.00 0.00
Ns 20.00
illum 2
map_Ka 1497631864221_0.png
map_Kd 1497631864221_0.png

newmtl 1497631864221_1
Ka 1.00 1.00 1.00
Kd 1.00 1.00 1.00
Ks 0.00 0.00 0.00
Ns 20.00
illum 2
map_Ka 1497631864221_1.png
map_Kd 1497631864221_1.png

newmtl 1497631864221_2
Ka 1.00 1.00 1.00
Kd 1.00 1.00 1.00
Ks 0.00 0.00 0.00
Ns 20.00
illum 2
map_Ka 1497631864221_2.png
map_Kd 1497631864221_2.png

newmtl 1497631864221_3
Ka 1.00 1.00 1.00
Kd 1.00 1.00 1.00
Ks 0.00 0.00 0.00
Ns 20.00
illum 2
map_Ka 1497631864221_3.png
map_Kd 1497631864221_3.png

newmtl 1497631864221_4
Ka 1.00 1.00 1.00
Kd 1.00 1.00 1.00
Ks 0.00 0.00 0.00
Ns 20.00
illum 2
map_Ka 1497631864221_4.png
map_Kd 1497631864221_4.png

newmtl 1497631864221_5
Ka 1.00 1.00 1.00
Kd 1.00 1.00 1.00
Ks 0.00 0.00 0.00
Ns 20.00
illum 2
map_Ka 1497631864221_5.png
map_Kd 1497631864221_5.png

newmtl 1497631864221_6
Ka 1.00 1.00 1.00
Kd 1.00 1.00 1.00
Ks 0.00 0.00 0.00
Ns 20.00
illum 2
map_Ka 1497631864221_6.png
map_Kd 1497631864221_6.png

newmtl 1497631864221_7
Ka 1.00 1.00 1.00
Kd 1.00 1.00 1.00
Ks 0.00 0.00 0.00
Ns 20.00
illum 2
map_Ka 1497631864221_7.png
map_Kd 1497631864221_7.png

newmtl 1497631864221_8
Ka 1.00 1.00 1.00
Kd 1.00 1.00 1.00
Ks 0.00 0.00 0.00
Ns 20.00
illum 2
map_Ka 1497631864221_8.png
map_Kd 1497631864221_8.png

newmtl 1497631864221_9
Ka 1.00 1.00 1.00
Kd 1.00 1.00 1.00
Ks 0.00 0.00 0.00
Ns 20.00
illum 2
map_Ka 1497631864221_9.png
map_Kd 1497631864221_9.png

newmtl 1497631864221_10
Ka 1.00 1.00 1.00
Kd 1.00 1.00 1.00
Ks 0.00 0.00 0.00
Ns 20.00
illum 2
map_Ka 1497631864221_10.png
map_Kd 1497631864221_10.png

newmtl 1497631864221_11
Ka 1.00 1.00 1.00
Kd 1.00 1.00 1.00
Ks 0.00 0.00 0.00
Ns 20.00
illum 2
map_Ka 1497631864221_11.png
map_Kd 1497631864221_11.png

newmtl 1497631864221_12
Ka 1.00 1.00 1.00
Kd 1.00 1.00 1.00
Ks 0.00 0.00 0.00
Ns 20.00
illum 2
map_Ka 1497631864221_12.png
map_Kd 1497631864221_12.png

newmtl 1497631864221_13
Ka 1.00 1.00 1.00
Kd 1.00 1.00 1.00
Ks 0.00 0.00 0.00
Ns 20.00
illum 2
map_Ka 1497631864221_13.png
map_Kd 1497631864221_13.png

newmtl 1497631864221_14
Ka 1.00 1.00 1.00
Kd 1.00 1.00 1.00
Ks 0.00 0.00 0.00
Ns 20.00
illum 2
map_Ka 1497631864221_14.png
map_Kd 1497631864221_14.png

newmtl 1497631864221_15
Ka 1.00 1.00 1.00
Kd 1.00 1.00 1.00
Ks 0.00 0.00 0.00
Ns 20.00
illum 2
map_Ka 1497631864221_15.png
map_Kd 1497631864221_15.png

newmtl 1497631864221_16
Ka 1.00 1.00 1.00
Kd 1.00 1.00 1.00
Ks 0.00 0.00 0.00
Ns 20.00
illum 2
map_Ka 1497631864221_16.png
map_Kd 1497631864221_16.png

newmtl 1497631864221_17
Ka 1.00 1.00 1.00
Kd 1.00 1.00 1.00
Ks 0.00 0.00 0.00
Ns 20.00
illum 2
map_Ka 1497631864221_17.png
map_Kd 1497631864221_17.png

newmtl 1497631864221_18
Ka 1.00 1.00 1.00
Kd 1.00 1.00 1.00
Ks 0.00 0.00 0.00
Ns 20.00
illum 2
map_Ka 1497631864221_18.png
map_Kd 1497631864221_18.png

newmtl 1497631864221_19
Ka 1.00 1.00 1.00
Kd 1.00 1.00 1.00
Ks 0.00 0.00 0.00
Ns 20.00
illum 2
map_Ka 1497631864221_19.png
map_Kd 1497631864221_19.png

newmtl 1497631864221_20
Ka 1.00 1.00 1.00
Kd 1.00 1.00 1.00
Ks 0.00 0.00 0.00
Ns 20.00
illum 2
map_Ka 1497631864221_20.png
map_Kd 1497631864221_20.png

newmtl 1497631864221_21
Ka 1.00 1.00 1.00
Kd 1.00 1.00 1.00
Ks 0.00 0.00 0.00
Ns 20.00
illum 2
map_Ka 1497631864221_21.png
map_Kd 1497631864221_21.png

newmtl 1497631864221_22
Ka 1.00 1.00 1.00
Kd 1.00 1.00 1.00
Ks 0.00 0.00 0.00
Ns 20.00
illum 2
map_Ka 1497631864221_22.png
map_Kd 1497631864221_22.png

newmtl 1497631864221_23
Ka 1.00 1.00 1.00
Kd 1.00 1.00 1.00
Ks 0.00 0.00 0.00
Ns 20.00
illum 2
map_Ka 1497631864221_23.png
map_Kd 1497631864221_23.png

newmtl 1497631864221_24
Ka 1.00 1.00 1.00
Kd 1.00 1.00 1.00
Ks 0.00 0.00 0.00
Ns 20.00
illum 2
map_Ka 1497631864221_24.png
map_Kd 1497631864221_24.png

newmtl 1497631864221_25
Ka 1.00 1.00 1.00
Kd 1.00 1.00 1.00
Ks 0.00 0.00 0.00
Ns 20.00
illum 2
map_Ka 1497631864221_25.png
map_Kd 1497631864221_25.png

newmtl 1497631864221_26
Ka 1.00 1.00 1.00
Kd 1.00 1.00 1.00
Ks 0.00 0.00 0.00
Ns 20.00
illum 2
map_Ka 1497631864221_26.png
map_Kd 1497631864221_26.png

newmtl 1497631864221_27
Ka 1.00 1.00 1.00
Kd 1.00 1.00 1.00
Ks 0.00 0.00 0.00
Ns 20.00
illum 2
map_Ka 1497631864221_27.png
map_Kd 1497631864221_27.png

newmtl 1497631864221_28
Ka 1.00 1.00 1.00
Kd 1.00 1.00 1.00
Ks 0.00 0.00 0.00
Ns 20.00
illum 2
map_Ka 1497631864221_28.png
map_Kd 1497631864221_28.png

newmtl 1497631864221_29
Ka 1.00 1.00 1.00
Kd 1.00 1.00 1.00
Ks 0.00 0.00 0.00
Ns 20.00
illum 2
map_Ka 1497631864221_29.png
map_Kd 1497631864221_29.png

newmtl 1497631864221_30
Ka 1.00 1.00 1.00
Kd 1.00 1.00 1.00
Ks 0.00 0.00 0.00
Ns 20.00
illum 2
map_Ka 1497631864221_30.png
map_Kd 1497631864221_30.png

newmtl 1497631864221_31
Ka 1.00 1.00 1.00
Kd 1.00 1.00 1.00
Ks 0.00 0.00 0.00
Ns 20.00
illum 2
map_Ka 1497631864221_31.png
map_Kd 1497631864221_31.png

newmtl 1497631864221_32
Ka 1.00 1.00 1.00
Kd 1.00 1.00 1.00
Ks 0.00 0.00 0.00
Ns 20.00
illum 2
map_Ka 1497631864221_32.png
map_Kd 1497631864221_32.png

newmtl 1497631864221_33
Ka 1.00 1.00 1.00
Kd 1.00 1.00 1.00
Ks 0.00 0.00 0.00
Ns 20.00
illum 2
map_Ka 1497631864221_33.png
map_Kd 1497631864221_33.png

newmtl 1497631864221_34
Ka 1.00 1.00 1.00
Kd 1.00 1.00 1.00
Ks 0.00 0.00 0.00
Ns 20.00
illum 2
map_Ka 1497631864221_34.png
map_Kd 1497631864221_34.png

newmtl 1497631864221_35
Ka 1.00 1.00 1.00
Kd 1.00 1.00 1.00
Ks 0.00 0.00 0.00
Ns 20.00
illum 2
map_Ka 1497631864221_35.png
map_Kd 1497631864221_35.png

newmtl 1497631864221_36
Ka 1.00 1.00 1.00
Kd 1.00 1.00 1.00
Ks 0.00 0.00 0.00
Ns 20.00
illum 2
map_Ka 1497631864221_36.png
map_Kd 1497631864221_36.png

newmtl 1497631864221_37
Ka 1.00 1.00 1.00
Kd 1.00 1.00 1.00
Ks 0.00 0.00 0.00
Ns 20.00
illum 2
map_Ka 1497631864221_37.png
map_Kd 1497631864221_37.png

newmtl 1497631864221_38
Ka 1.00 1.00 1.00
Kd 1.00 1.00 1.00
Ks 0.00 0.00 0.00
Ns 20.00
illum 2
map_Ka 1497631864221_38.png
map_Kd 1497631864221_38.png

newmtl 1497631864221_39
Ka 1.00 1.00 1.00
Kd 1.00 1.00 1.00
Ks 0.00 0.00 0.00
Ns 20.00
illum 2
map_Ka 1497631864221_39.png
map_Kd 1497631864221_39.png

newmtl 1497631864221_40
Ka 1.00 1.00 1.00
Kd 1.00 1.00 1.00
Ks 0.00 0.00 0.00
Ns 20.00
illum 2
map_Ka 1497631864221_40.png
map_Kd 1497631864221_40.png

